dump.vcd
$date
	Fri May 15 03:26:21 2026
$end
$version
	Icarus Verilog
$end
$timescale
	1ps
$end
$scope module tb_accelerator $end
$var wire 24 ! drain_out_3 [23:0] $end
$var wire 24 " drain_out_2 [23:0] $end
$var wire 24 # drain_out_1 [23:0] $end
$var wire 24 $ drain_out_0 [23:0] $end
$var wire 1 % done_flag $end
$var reg 1 & clk $end
$var reg 32 ' matrix_a_in [31:0] $end
$var reg 32 ( matrix_b_in [31:0] $end
$var reg 1 ) rst $end
$var reg 1 * start $end
$var integer 32 + cycle [31:0] $end
$scope module dut $end
$var wire 1 & clk $end
$var wire 24 , drain_out_0 [23:0] $end
$var wire 24 - drain_out_1 [23:0] $end
$var wire 24 . drain_out_2 [23:0] $end
$var wire 24 / drain_out_3 [23:0] $end
$var wire 32 0 matrix_a_in [31:0] $end
$var wire 32 1 matrix_b_in [31:0] $end
$var wire 1 ) rst $end
$var wire 1 * start $end
$var wire 1 2 shift_en $end
$var wire 1 3 en $end
$var wire 1 % done_flag $end
$var wire 1 4 clr_acc $end
$scope module controller_inst $end
$var wire 1 & clk $end
$var wire 1 ) rst $end
$var wire 1 * start $end
$var parameter 2 5 COMPUTE $end
$var parameter 2 6 DONE $end
$var parameter 2 7 DRAIN $end
$var parameter 2 8 IDLE $end
$var reg 1 4 clr_acc $end
$var reg 4 9 count [3:0] $end
$var reg 1 % done_flag $end
$var reg 1 3 en $end
$var reg 2 : next_state [1:0] $end
$var reg 1 2 shift_en $end
$var reg 2 ; state [1:0] $end
$upscope $end
$scope module skew_buffers_inst $end
$var wire 1 & clk $end
$var wire 1 ) rst $end
$var reg 8 < c1_d1 [7:0] $end
$var reg 8 = c2_d1 [7:0] $end
$var reg 8 > c2_d2 [7:0] $end
$var reg 8 ? c3_d1 [7:0] $end
$var reg 8 @ c3_d2 [7:0] $end
$var reg 8 A c3_d3 [7:0] $end
$var reg 8 B r1_d1 [7:0] $end
$var reg 8 C r2_d1 [7:0] $end
$var reg 8 D r2_d2 [7:0] $end
$var reg 8 E r3_d1 [7:0] $end
$var reg 8 F r3_d2 [7:0] $end
$var reg 8 G r3_d3 [7:0] $end
$upscope $end
$scope module systolic_array_inst $end
$var wire 1 & clk $end
$var wire 1 4 clr_acc $end
$var wire 1 3 en $end
$var wire 1 ) rst $end
$var wire 1 2 shift_en $end
$scope begin pe_row[0] $end
$var parameter 2 H i $end
$scope begin pe_col[0] $end
$var parameter 2 I j $end
$scope begin row0 $end
$scope begin col0 $end
$scope module pe_inst $end
$var wire 8 J a_in [7:0] $end
$var wire 8 K b_in [7:0] $end
$var wire 1 & clk $end
$var wire 1 4 clr_acc $end
$var wire 1 3 en $end
$var wire 1 ) rst $end
$var wire 1 2 shift_en $end
$var wire 24 L shift_in [23:0] $end
$var reg 8 M a_out [7:0] $end
$var reg 24 N acc [23:0] $end
$var reg 8 O b_out [7:0] $end
$upscope $end
$upscope $end
$upscope $end
$upscope $end
$scope begin pe_col[1] $end
$var parameter 2 P j $end
$scope begin row0 $end
$scope begin col1 $end
$scope module pe_inst $end
$var wire 8 Q a_in [7:0] $end
$var wire 8 R b_in [7:0] $end
$var wire 1 & clk $end
$var wire 1 4 clr_acc $end
$var wire 1 3 en $end
$var wire 1 ) rst $end
$var wire 1 2 shift_en $end
$var wire 24 S shift_in [23:0] $end
$var reg 8 T a_out [7:0] $end
$var reg 24 U acc [23:0] $end
$var reg 8 V b_out [7:0] $end
$upscope $end
$upscope $end
$upscope $end
$upscope $end
$scope begin pe_col[2] $end
$var parameter 3 W j $end
$scope begin row0 $end
$scope begin col2 $end
$scope module pe_inst $end
$var wire 8 X a_in [7:0] $end
$var wire 8 Y b_in [7:0] $end
$var wire 1 & clk $end
$var wire 1 4 clr_acc $end
$var wire 1 3 en $end
$var wire 1 ) rst $end
$var wire 1 2 shift_en $end
$var wire 24 Z shift_in [23:0] $end
$var reg 8 [ a_out [7:0] $end
$var reg 24 \ acc [23:0] $end
$var reg 8 ] b_out [7:0] $end
$upscope $end
$upscope $end
$upscope $end
$upscope $end
$scope begin pe_col[3] $end
$var parameter 3 ^ j $end
$scope begin row0 $end
$scope begin col3 $end
$scope module pe_inst $end
$var wire 8 _ a_in [7:0] $end
$var wire 8 ` b_in [7:0] $end
$var wire 1 & clk $end
$var wire 1 4 clr_acc $end
$var wire 1 3 en $end
$var wire 1 ) rst $end
$var wire 1 2 shift_en $end
$var wire 24 a shift_in [23:0] $end
$var reg 8 b a_out [7:0] $end
$var reg 24 c acc [23:0] $end
$var reg 8 d b_out [7:0] $end
$upscope $end
$upscope $end
$upscope $end
$upscope $end
$upscope $end
$scope begin pe_row[1] $end
$var parameter 2 e i $end
$scope begin pe_col[0] $end
$var parameter 2 f j $end
$scope begin row1 $end
$scope begin col0 $end
$scope module pe_inst $end
$var wire 8 g a_in [7:0] $end
$var wire 8 h b_in [7:0] $end
$var wire 1 & clk $end
$var wire 1 4 clr_acc $end
$var wire 1 3 en $end
$var wire 1 ) rst $end
$var wire 1 2 shift_en $end
$var wire 24 i shift_in [23:0] $end
$var reg 8 j a_out [7:0] $end
$var reg 24 k acc [23:0] $end
$var reg 8 l b_out [7:0] $end
$upscope $end
$upscope $end
$upscope $end
$upscope $end
$scope begin pe_col[1] $end
$var parameter 2 m j $end
$scope begin row1 $end
$scope begin col1 $end
$scope module pe_inst $end
$var wire 8 n a_in [7:0] $end
$var wire 8 o b_in [7:0] $end
$var wire 1 & clk $end
$var wire 1 4 clr_acc $end
$var wire 1 3 en $end
$var wire 1 ) rst $end
$var wire 1 2 shift_en $end
$var wire 24 p shift_in [23:0] $end
$var reg 8 q a_out [7:0] $end
$var reg 24 r acc [23:0] $end
$var reg 8 s b_out [7:0] $end
$upscope $end
$upscope $end
$upscope $end
$upscope $end
$scope begin pe_col[2] $end
$var parameter 3 t j $end
$scope begin row1 $end
$scope begin col2 $end
$scope module pe_inst $end
$var wire 8 u a_in [7:0] $end
$var wire 8 v b_in [7:0] $end
$var wire 1 & clk $end
$var wire 1 4 clr_acc $end
$var wire 1 3 en $end
$var wire 1 ) rst $end
$var wire 1 2 shift_en $end
$var wire 24 w shift_in [23:0] $end
$var reg 8 x a_out [7:0] $end
$var reg 24 y acc [23:0] $end
$var reg 8 z b_out [7:0] $end
$upscope $end
$upscope $end
$upscope $end
$upscope $end
$scope begin pe_col[3] $end
$var parameter 3 { j $end
$scope begin row1 $end
$scope begin col3 $end
$scope module pe_inst $end
$var wire 8 | a_in [7:0] $end
$var wire 8 } b_in [7:0] $end
$var wire 1 & clk $end
$var wire 1 4 clr_acc $end
$var wire 1 3 en $end
$var wire 1 ) rst $end
$var wire 1 2 shift_en $end
$var wire 24 ~ shift_in [23:0] $end
$var reg 8 !" a_out [7:0] $end
$var reg 24 "" acc [23:0] $end
$var reg 8 #" b_out [7:0] $end
$upscope $end
$upscope $end
$upscope $end
$upscope $end
$upscope $end
$scope begin pe_row[2] $end
$var parameter 3 $" i $end
$scope begin pe_col[0] $end
$var parameter 2 %" j $end
$scope begin row2 $end
$scope begin col0 $end
$scope module pe_inst $end
$var wire 8 &" a_in [7:0] $end
$var wire 8 '" b_in [7:0] $end
$var wire 1 & clk $end
$var wire 1 4 clr_acc $end
$var wire 1 3 en $end
$var wire 1 ) rst $end
$var wire 1 2 shift_en $end
$var wire 24 (" shift_in [23:0] $end
$var reg 8 )" a_out [7:0] $end
$var reg 24 *" acc [23:0] $end
$var reg 8 +" b_out [7:0] $end
$upscope $end
$upscope $end
$upscope $end
$upscope $end
$scope begin pe_col[1] $end
$var parameter 2 ," j $end
$scope begin row2 $end
$scope begin col1 $end
$scope module pe_inst $end
$var wire 8 -" a_in [7:0] $end
$var wire 8 ." b_in [7:0] $end
$var wire 1 & clk $end
$var wire 1 4 clr_acc $end
$var wire 1 3 en $end
$var wire 1 ) rst $end
$var wire 1 2 shift_en $end
$var wire 24 /" shift_in [23:0] $end
$var reg 8 0" a_out [7:0] $end
$var reg 24 1" acc [23:0] $end
$var reg 8 2" b_out [7:0] $end
$upscope $end
$upscope $end
$upscope $end
$upscope $end
$scope begin pe_col[2] $end
$var parameter 3 3" j $end
$scope begin row2 $end
$scope begin col2 $end
$scope module pe_inst $end
$var wire 8 4" a_in [7:0] $end
$var wire 8 5" b_in [7:0] $end
$var wire 1 & clk $end
$var wire 1 4 clr_acc $end
$var wire 1 3 en $end
$var wire 1 ) rst $end
$var wire 1 2 shift_en $end
$var wire 24 6" shift_in [23:0] $end
$var reg 8 7" a_out [7:0] $end
$var reg 24 8" acc [23:0] $end
$var reg 8 9" b_out [7:0] $end
$upscope $end
$upscope $end
$upscope $end
$upscope $end
$scope begin pe_col[3] $end
$var parameter 3 :" j $end
$scope begin row2 $end
$scope begin col3 $end
$scope module pe_inst $end
$var wire 8 ;" a_in [7:0] $end
$var wire 8 <" b_in [7:0] $end
$var wire 1 & clk $end
$var wire 1 4 clr_acc $end
$var wire 1 3 en $end
$var wire 1 ) rst $end
$var wire 1 2 shift_en $end
$var wire 24 =" shift_in [23:0] $end
$var reg 8 >" a_out [7:0] $end
$var reg 24 ?" acc [23:0] $end
$var reg 8 @" b_out [7:0] $end
$upscope $end
$upscope $end
$upscope $end
$upscope $end
$upscope $end
$scope begin pe_row[3] $end
$var parameter 3 A" i $end
$scope begin pe_col[0] $end
$var parameter 2 B" j $end
$scope begin row3 $end
$scope begin col0 $end
$scope module pe_inst $end
$var wire 8 C" a_in [7:0] $end
$var wire 8 D" b_in [7:0] $end
$var wire 1 & clk $end
$var wire 1 4 clr_acc $end
$var wire 1 3 en $end
$var wire 1 ) rst $end
$var wire 1 2 shift_en $end
$var wire 24 E" shift_in [23:0] $end
$var reg 8 F" a_out [7:0] $end
$var reg 24 G" acc [23:0] $end
$var reg 8 H" b_out [7:0] $end
$upscope $end
$upscope $end
$upscope $end
$upscope $end
$scope begin pe_col[1] $end
$var parameter 2 I" j $end
$scope begin row3 $end
$scope begin col1 $end
$scope module pe_inst $end
$var wire 8 J" a_in [7:0] $end
$var wire 8 K" b_in [7:0] $end
$var wire 1 & clk $end
$var wire 1 4 clr_acc $end
$var wire 1 3 en $end
$var wire 1 ) rst $end
$var wire 1 2 shift_en $end
$var wire 24 L" shift_in [23:0] $end
$var reg 8 M" a_out [7:0] $end
$var reg 24 N" acc [23:0] $end
$var reg 8 O" b_out [7:0] $end
$upscope $end
$upscope $end
$upscope $end
$upscope $end
$scope begin pe_col[2] $end
$var parameter 3 P" j $end
$scope begin row3 $end
$scope begin col2 $end
$scope module pe_inst $end
$var wire 8 Q" a_in [7:0] $end
$var wire 8 R" b_in [7:0] $end
$var wire 1 & clk $end
$var wire 1 4 clr_acc $end
$var wire 1 3 en $end
$var wire 1 ) rst $end
$var wire 1 2 shift_en $end
$var wire 24 S" shift_in [23:0] $end
$var reg 8 T" a_out [7:0] $end
$var reg 24 U" acc [23:0] $end
$var reg 8 V" b_out [7:0] $end
$upscope $end
$upscope $end
$upscope $end
$upscope $end
$scope begin pe_col[3] $end
$var parameter 3 W" j $end
$scope begin row3 $end
$scope begin col3 $end
$scope module pe_inst $end
$var wire 8 X" a_in [7:0] $end
$var wire 8 Y" b_in [7:0] $end
$var wire 1 & clk $end
$var wire 1 4 clr_acc $end
$var wire 1 3 en $end
$var wire 1 ) rst $end
$var wire 1 2 shift_en $end
$var wire 24 Z" shift_in [23:0] $end
$var reg 8 [" a_out [7:0] $end
$var reg 24 \" acc [23:0] $end
$var reg 8 ]" b_out [7:0] $end
$upscope $end
$upscope $end
$upscope $end
$upscope $end
$upscope $end
$upscope $end
$upscope $end
$upscope $end
$enddefinitions $end
$comment Show the parameter values. $end
$dumpall
b11 W"
b10 P"
b1 I"
b0 B"
b11 A"
b11 :"
b10 3"
b1 ,"
b0 %"
b10 $"
b11 {
b10 t
b1 m
b0 f
b1 e
b11 ^
b10 W
b1 P
b0 I
b0 H
b0 8
b10 7
b11 6
b1 5
$end
#0
$dumpvars
bx ]"
bx \"
bx ["
bx Z"
bx Y"
bx X"
bx V"
bx U"
bx T"
bx S"
bx R"
bx Q"
bx O"
bx N"
bx M"
bx L"
bx K"
bx J"
bx H"
bx G"
bx F"
bx E"
bx D"
bx C"
bx @"
bx ?"
bx >"
bx ="
bx <"
bx ;"
bx 9"
bx 8"
bx 7"
bx 6"
bx 5"
bx 4"
bx 2"
bx 1"
bx 0"
bx /"
bx ."
bx -"
bx +"
bx *"
bx )"
bx ("
bx '"
bx &"
bx #"
bx ""
bx !"
bx ~
bx }
bx |
bx z
bx y
bx x
bx w
bx v
bx u
bx s
bx r
bx q
bx p
bx o
bx n
bx l
bx k
bx j
bx i
bx h
bx g
bx d
bx c
bx b
b0 a
bx `
bx _
bx ]
bx \
bx [
b0 Z
bx Y
bx X
bx V
bx U
bx T
b0 S
bx R
bx Q
bx O
bx N
bx M
b0 L
b0 K
b0 J
bx G
bx F
bx E
bx D
bx C
bx B
bx A
bx @
bx ?
bx >
bx =
bx <
bx ;
b0 :
bx 9
x4
x3
x2
b0 1
b0 0
bx /
bx .
bx -
bx ,
bx +
0*
1)
b0 (
b0 '
0&
x%
bx $
bx #
bx "
bx !
$end
#5000
0%
14
02
03
b0 9
b0 ;
b0 `
b0 A
b0 @
b0 ?
b0 Y
b0 >
b0 =
b0 R
b0 <
b0 C"
b0 G
b0 F
b0 E
b0 &"
b0 D
b0 C
b0 g
b0 B
b0 O
b0 h
b0 M
b0 Q
b0 N
b0 i
b0 V
b0 o
b0 T
b0 X
b0 U
b0 p
b0 ]
b0 v
b0 [
b0 _
b0 \
b0 w
b0 d
b0 }
b0 b
b0 c
b0 ~
b0 l
b0 '"
b0 j
b0 n
b0 k
b0 ("
b0 s
b0 ."
b0 q
b0 u
b0 r
b0 /"
b0 z
b0 5"
b0 x
b0 |
b0 y
b0 6"
b0 #"
b0 <"
b0 !"
b0 ""
b0 ="
b0 +"
b0 D"
b0 )"
b0 -"
b0 *"
b0 E"
b0 2"
b0 K"
b0 0"
b0 4"
b0 1"
b0 L"
b0 9"
b0 R"
b0 7"
b0 ;"
b0 8"
b0 S"
b0 @"
b0 Y"
b0 >"
b0 ?"
b0 Z"
b0 H"
b0 F"
b0 J"
b0 $
b0 ,
b0 G"
b0 O"
b0 M"
b0 Q"
b0 #
b0 -
b0 N"
b0 V"
b0 T"
b0 X"
b0 "
b0 .
b0 U"
b0 ]"
b0 ["
b0 !
b0 /
b0 \"
1&
#10000
0&
#15000
1&
#20000
0&
0)
#25000
b1 :
1*
1&
#30000
0&
#35000
13
04
b1 ;
b11 K
b10 J
b1 :
b11000000110000001100000011 (
b11000000110000001100000011 1
b10000000100000001000000010 '
b10000000100000001000000010 0
b0 +
0*
1&
#40000
0&
#45000
b1 9
b11 ?
b11 =
b11 R
b11 <
b10 E
b10 C
b10 g
b10 B
b110 N
b110 i
b11 O
b11 h
b10 M
b10 Q
b1 +
1&
#50000
0&
#55000
b110 k
b110 ("
b11 l
b11 '"
b10 j
b10 n
b110 U
b110 p
b11 V
b11 o
b10 T
b10 X
b1100 N
b1100 i
b11 @
b11 Y
b11 >
b10 F
b10 &"
b10 D
b10 9
b10 +
1&
#60000
0&
#65000
b11 9
b11 `
b11 A
b10 C"
b10 G
b10010 N
b10010 i
b1100 U
b1100 p
b110 \
b110 w
b11 ]
b11 v
b10 [
b10 _
b1100 k
b1100 ("
b110 r
b110 /"
b11 s
b11 ."
b10 q
b10 u
b110 *"
b110 E"
b11 +"
b11 D"
b10 )"
b10 -"
b11 +
1&
#70000
0&
#75000
b110 $
b110 ,
b110 G"
b11 H"
b10 F"
b10 J"
b110 1"
b110 L"
b11 2"
b11 K"
b10 0"
b10 4"
b1100 *"
b1100 E"
b110 y
b110 6"
b11 z
b11 5"
b10 x
b10 |
b1100 r
b1100 /"
b10010 k
b10010 ("
b110 c
b110 ~
b11 d
b11 }
b10 b
b1100 \
b1100 w
b10010 U
b10010 p
b11000 N
b11000 i
b100 9
b0 K
b0 J
b0 (
b0 1
b0 '
b0 0
b0 +
1&
#80000
0&
#85000
b101 9
b0 ?
b0 =
b0 R
b0 <
b0 E
b0 C
b0 g
b0 B
b0 O
b0 h
b0 M
b0 Q
b11000 U
b11000 p
b10010 \
b10010 w
b1100 c
b1100 ~
b11000 k
b11000 ("
b10010 r
b10010 /"
b1100 y
b1100 6"
b110 ""
b110 ="
b11 #"
b11 <"
b10 !"
b10010 *"
b10010 E"
b1100 1"
b1100 L"
b110 8"
b110 S"
b11 9"
b11 R"
b10 7"
b10 ;"
b1100 $
b1100 ,
b1100 G"
b110 #
b110 -
b110 N"
b11 O"
b10 M"
b10 Q"
b1 +
1&
#90000
0&
#95000
b110 "
b110 .
b110 U"
b11 V"
b10 T"
b10 X"
b1100 #
b1100 -
b1100 N"
b10010 $
b10010 ,
b10010 G"
b110 ?"
b110 Z"
b11 @"
b11 Y"
b10 >"
b1100 8"
b1100 S"
b10010 1"
b10010 L"
b11000 *"
b11000 E"
b1100 ""
b1100 ="
b10010 y
b10010 6"
b11000 r
b11000 /"
b0 l
b0 '"
b0 j
b0 n
b10010 c
b10010 ~
b11000 \
b11000 w
b0 V
b0 o
b0 T
b0 X
b0 @
b0 Y
b0 >
b0 F
b0 &"
b0 D
b110 9
b10 +
1&
#100000
0&
#105000
b111 9
b0 `
b0 A
b0 C"
b0 G
b0 ]
b0 v
b0 [
b0 _
b11000 c
b11000 ~
b0 s
b0 ."
b0 q
b0 u
b11000 y
b11000 6"
b10010 ""
b10010 ="
b0 +"
b0 D"
b0 )"
b0 -"
b11000 1"
b11000 L"
b10010 8"
b10010 S"
b1100 ?"
b1100 Z"
b11000 $
b11000 ,
b11000 G"
b10010 #
b10010 -
b10010 N"
b1100 "
b1100 .
b1100 U"
b110 !
b110 /
b110 \"
b11 ]"
b10 ["
b11 +
1&
#110000
0&
#115000
b1100 !
b1100 /
b1100 \"
b10010 "
b10010 .
b10010 U"
b11000 #
b11000 -
b11000 N"
b0 H"
b0 F"
b0 J"
b10010 ?"
b10010 Z"
b11000 8"
b11000 S"
b0 2"
b0 K"
b0 0"
b0 4"
b11000 ""
b11000 ="
b0 z
b0 5"
b0 x
b0 |
b0 d
b0 }
b0 b
b1000 9
b100 +
1&
#120000
0&
#125000
b10 :
b1001 9
b0 #"
b0 <"
b0 !"
b0 9"
b0 R"
b0 7"
b0 ;"
b11000 ?"
b11000 Z"
b0 O"
b0 M"
b0 Q"
b11000 "
b11000 .
b11000 U"
b10010 !
b10010 /
b10010 \"
b101 +
1&
#130000
0&
#135000
12
03
b11000 !
b11000 /
b11000 \"
b0 V"
b0 T"
b0 X"
b0 @"
b0 Y"
b0 >"
b0 9
b10 ;
b110 +
1&
#140000
0&
#145000
b1 9
b0 N
b0 i
b0 U
b0 p
b0 \
b0 w
b0 c
b0 ~
b0 ]"
b0 ["
b111 +
1&
#150000
0&
#155000
b0 ""
b0 ="
b0 y
b0 6"
b0 r
b0 /"
b0 k
b0 ("
b10 9
b1000 +
1&
#160000
0&
#165000
b11 :
b11 9
b0 *"
b0 E"
b0 1"
b0 L"
b0 8"
b0 S"
b0 ?"
b0 Z"
b1001 +
1&
#170000
0&
#175000
1%
02
b0 :
b0 !
b0 /
b0 \"
b0 "
b0 .
b0 U"
b0 #
b0 -
b0 N"
b0 $
b0 ,
b0 G"
b0 9
b11 ;
b1010 +
1&
#180000
0&
#185000
14
0%
b0 ;
b1011 +
1&
#190000
0&
#195000
b1100 +
1&
#200000
0&
#205000
b1101 +
1&
#210000
0&
#215000
b1110 +
1&
#220000
0&
#225000
b1111 +
1&
#230000
0&
#235000
b10000 +
1&
